%YAML 1.1
%TAG !u! tag:unity3d.com,2011:
--- !u!114 &11400000
MonoBehaviour:
  m_ObjectHideFlags: 0
  m_PrefabParentObject: {fileID: 0}
  m_PrefabInternal: {fileID: 0}
  m_GameObject: {fileID: 0}
  m_Enabled: 1
  m_EditorHideFlags: 0
  m_Script: {fileID: 11500000, guid: 80906ac63658d6d46b9f591699e9fd5d, type: 3}
  m_Name: References 1
  m_EditorClassIdentifier: 
  actionsManager: {fileID: 0}
  sceneManager: {fileID: 0}
  settingsManager: {fileID: 0}
  inventoryManager: {fileID: 0}
  variablesManager: {fileID: 0}
  speechManager: {fileID: 0}
  cursorManager: {fileID: 0}
  menuManager: {fileID: 0}
  viewingMenuManager: 0
