%YAML 1.1
%TAG !u! tag:unity3d.com,2011:
--- !u!114 &11400000
MonoBehaviour:
  m_ObjectHideFlags: 0
  m_PrefabParentObject: {fileID: 0}
  m_PrefabInternal: {fileID: 0}
  m_GameObject: {fileID: 0}
  m_Enabled: 1
  m_EditorHideFlags: 0
  m_Script: {fileID: 11500000, guid: 3cc1f751990d444ef9e1381090933b8b, type: 3}
  m_Name: Superheros_Saved_Checker
  m_EditorClassIdentifier: 
  actions:
  - {fileID: 114577905365445874}
  - {fileID: 114920643776639216}
  isSkippable: 1
  actionListType: 0
  unfreezePauseMenus: 1
  useParameters: 0
  canRunMultipleInstances: 0
  parameters: []
  tagID: 0
--- !u!114 &114577905365445874
MonoBehaviour:
  m_ObjectHideFlags: 1
  m_PrefabParentObject: {fileID: 0}
  m_PrefabInternal: {fileID: 0}
  m_GameObject: {fileID: 0}
  m_Enabled: 1
  m_EditorHideFlags: 0
  m_Script: {fileID: 11500000, guid: bdaacaae7eb224bd2b2b6d336bb7b1a8, type: 3}
  m_Name: ActionVarCheck(Clone)
  m_EditorClassIdentifier: 
  id: 0
  category: 17
  title: Check
  description: Queries the value of both Global and Local Variables declared in the
    Variables Manager. Variables can be compared with a fixed value, or with the values
    of other Variables.
  isDisplayed: 1
  showComment: 0
  comment: 
  showOutputSockets: 1
  numSockets: 2
  willWait: 0
  isRunning: 0
  lastResult:
    resultAction: 0
    skipAction: -10
    skipActionActual: {fileID: 0}
    linkedCutscene: {fileID: 0}
    linkedAsset: {fileID: 0}
  endAction: 0
  skipAction: -1
  skipActionActual: {fileID: 0}
  linkedCutscene: {fileID: 0}
  linkedAsset: {fileID: 0}
  isEnabled: 1
  isAssetFile: 1
  isMarked: 0
  isBreakPoint: 0
  nodeRect:
    serializedVersion: 2
    x: 14
    y: 14
    width: 300
    height: 158
  nodeHeight: 0
  resultActionTrue: 2
  skipActionTrue: 1
  skipActionTrueActual: {fileID: 114920643776639216}
  linkedCutsceneTrue: {fileID: 0}
  linkedAssetTrue: {fileID: 0}
  resultActionFail: 1
  skipActionFail: 2
  skipActionFailActual: {fileID: 0}
  linkedCutsceneFail: {fileID: 0}
  linkedAssetFail: {fileID: 0}
  parameterID: -1
  variableID: 0
  variableNumber: 0
  checkParameterID: -1
  getVarMethod: 0
  compareVariableID: 0
  intValue: 3
  floatValue: 0
  intCondition: 0
  isAdditive: 0
  boolValue: 1
  boolCondition: 0
  stringValue: 
  checkCase: 1
  location: 0
--- !u!114 &114920643776639216
MonoBehaviour:
  m_ObjectHideFlags: 1
  m_PrefabParentObject: {fileID: 0}
  m_PrefabInternal: {fileID: 0}
  m_GameObject: {fileID: 0}
  m_Enabled: 1
  m_EditorHideFlags: 0
  m_Script: {fileID: 11500000, guid: f639be51345dd4ab29e6441abd4a9780, type: 3}
  m_Name: ActionTransform(Clone)
  m_EditorClassIdentifier: 
  id: 0
  category: 11
  title: Transform
  description: Transforms a GameObject over time, by or to a given amount, or towards
    a Marker in the scene. The GameObject must have a Moveable script attached.
  isDisplayed: 1
  showComment: 0
  comment: 
  showOutputSockets: 1
  numSockets: 1
  willWait: 0
  isRunning: 0
  lastResult:
    resultAction: 0
    skipAction: -10
    skipActionActual: {fileID: 0}
    linkedCutscene: {fileID: 0}
    linkedAsset: {fileID: 0}
  endAction: 1
  skipAction: 1
  skipActionActual: {fileID: 114920643776639216}
  linkedCutscene: {fileID: 0}
  linkedAsset: {fileID: 0}
  isEnabled: 1
  isAssetFile: 1
  isMarked: 0
  isBreakPoint: 0
  nodeRect:
    serializedVersion: 2
    x: 206
    y: 268
    width: 300
    height: 199
  nodeHeight: 0
  marker: {fileID: 0}
  markerParameterID: -1
  markerID: 0
  doEulerRotation: 0
  clearExisting: 0
  timeCurve:
    serializedVersion: 2
    m_Curve:
    - serializedVersion: 2
      time: 0
      value: 0
      inSlope: 0
      outSlope: 0
      tangentMode: 0
    - serializedVersion: 2
      time: 1
      value: 1
      inSlope: 0
      outSlope: 0
      tangentMode: 0
    m_PreInfinity: 2
    m_PostInfinity: 2
    m_RotationOrder: 4
  parameterID: -1
  constantID: 1689220
  linkedProp: {fileID: 0}
  newVector: {x: 6.738, y: 0.52, z: 1.691}
  transitionTime: 0
  transitionTimeParameterID: -1
  transformType: 0
  moveMethod: 0
  toBy: 0
